4	Platforms	

		Tile#
a08 4 way      	168
a09 3 T   	169
a10 2 L		170
a11 2 S		171

1 Tile Bridge		b08		172
2 Tile Bridge		b09-b10		173 174
3 Tile Bridge		c08-c10		175 176 177
4 Tile Bridge		d08-d11		178 179 180 181
5 Tile Bridge		e08-e12 	182 183 184 185 186