//Maya ASCII 5.0 scene
//Name: flint.ma
//Last modified: Sun, Mar 28, 2004 10:53:16 PM
requires maya "4.0";
currentUnit -l centimeter -a degree -t film;
createNode transform -s -n "persp";
	setAttr ".v" no;
	setAttr ".t" -type "double3" 28 21 28 ;
	setAttr ".r" -type "double3" -27.938352729602379 44.999999999999972 -4.7228827447146885e-014 ;
createNode camera -s -n "perspShape" -p "persp";
	setAttr -k off ".v" no;
	setAttr ".fl" 34.999999999999993;
	setAttr ".coi" 44.821869662029947;
	setAttr ".imn" -type "string" "persp";
	setAttr ".den" -type "string" "persp_depth";
	setAttr ".man" -type "string" "persp_mask";
	setAttr ".hc" -type "string" "viewSet -p %camera";
createNode transform -s -n "top";
	setAttr ".v" no;
	setAttr ".t" -type "double3" 0 100 0 ;
	setAttr ".r" -type "double3" -89.999999999999986 0 0 ;
createNode camera -s -n "topShape" -p "top";
	setAttr -k off ".v" no;
	setAttr ".rnd" no;
	setAttr ".coi" 100;
	setAttr ".ow" 30;
	setAttr ".imn" -type "string" "top";
	setAttr ".den" -type "string" "top_depth";
	setAttr ".man" -type "string" "top_mask";
	setAttr ".hc" -type "string" "viewSet -t %camera";
	setAttr ".o" yes;
createNode transform -s -n "front";
	setAttr ".v" no;
	setAttr ".t" -type "double3" 0 0 100 ;
createNode camera -s -n "frontShape" -p "front";
	setAttr -k off ".v" no;
	setAttr ".rnd" no;
	setAttr ".coi" 100;
	setAttr ".ow" 30;
	setAttr ".imn" -type "string" "front";
	setAttr ".den" -type "string" "front_depth";
	setAttr ".man" -type "string" "front_mask";
	setAttr ".hc" -type "string" "viewSet -f %camera";
	setAttr ".o" yes;
createNode transform -s -n "side";
	setAttr ".v" no;
	setAttr ".t" -type "double3" 100 0 0 ;
	setAttr ".r" -type "double3" 0 89.999999999999986 0 ;
createNode camera -s -n "sideShape" -p "side";
	setAttr -k off ".v" no;
	setAttr ".rnd" no;
	setAttr ".coi" 100;
	setAttr ".ow" 30;
	setAttr ".imn" -type "string" "side";
	setAttr ".den" -type "string" "side_depth";
	setAttr ".man" -type "string" "side_mask";
	setAttr ".hc" -type "string" "viewSet -s %camera";
	setAttr ".o" yes;
createNode transform -n "pmd0_head011";
	setAttr ".r" -type "double3" -90.000002504478161 0 0 ;
	setAttr ".s" -type "double3" 1 0.99999999999999989 0.99999999999999989 ;
createNode transform -n "pmd0_head010g" -p "pmd0_head011";
	setAttr ".s" -type "double3" 100 100 100 ;
createNode mesh -n "polySurfaceShape1" -p "pmd0_head010g";
	setAttr -k off ".v";
	setAttr ".vir" yes;
	setAttr ".vif" yes;
	setAttr ".uvst[0].uvsn" -type "string" "map1";
	setAttr -s 216 ".uvst[0].uvsp[0:215]" -type "float2" -0.89074898 
		1.07739 0.0145455 0.73478103 0.0122433 0.85523599 0.0075586098 0.345557 0.012742 
		0.57718903 0.0086103203 0.36811101 0.0094243595 0.34426001 0.0038874201 0.26238301 
		0.034471702 0.37721601 0.093462802 0.668459 0.105729 0.379664 0.060751099 
		0.54630202 0.29042301 0.249017 0.102107 0.340011 0.12515201 0.862046 0.13562299 
		0.27695701 0.20572899 0.124464 -0.902466 1.10873 0.37775901 0.28141201 -0.784814 
		1.15273 0.230039 0.54428399 0.19518299 0.60166699 0.23240399 0.76176703 0.226972 
		0.44592801 0.21873499 0.312673 0.26727599 0.69603199 0.338999 0.60634601 
		0.28187799 0.93121302 0.33674601 0.63917899 0.28031501 0.30753899 -0.69401097 
		1.1937799 1.83596 0.88111597 1.5900199 0.88132 1.68445 0.92168099 0.99102402 
		-0.48327699 0.81896502 -0.47812 0.79371899 -0.0550372 0.64276099 -0.031675901 
		0.47205499 -0.034079898 0.64481002 -0.0107321 0.51877499 -0.0089746704 0.93436301 
		-0.454382 0.63006598 -0.36423001 0.77901298 -0.523386 0.75982702 -0.1954 
		0.58349901 -0.33521199 0.66045302 -0.14832599 0.616431 -0.051743601 0.88215899 
		-0.16510201 0.50411803 -0.053261701 0.92096001 -0.20111901 1.85192 0.873927 
		-0.126103 -0.211899 -0.43251601 -0.049679 -0.121951 -0.14842901 -0.39578801 
		-0.132245 -0.287323 -0.30209401 -0.21069901 -0.0489625 1.58216 -0.478661 
		1.72536 -0.355115 -0.121951 -0.472987 1.72682 -0.31109199 -0.29121 -0.36663401 
		-0.43251601 -0.46973699 -0.42811301 0.824619 -0.20509 0.80835801 0.277435 
		-0.80125099 0.27860099 -0.80308199 0.238415 -0.80629802 0.237294 -0.87448502 
		0.74054599 0.65653098 0.74110001 0.65321302 0.74147803 0.65983599 0.74626899 
		0.66268802 0.74686003 0.65454501 0.74867702 0.64717603 0.75391299 0.64884698 
		0.75503302 0.65533 -0.69434702 1.19366 0.220936 -0.78000402 0.201288 -0.70910001 
		0.13403299 -0.70437199 0.239581 -0.80812901 0.133056 -0.65074003 -0.785151 
		1.1526099 1.74268 0.71350503 1.8358001 0.66889697 1.5900199 0.679829 -0.57880998 
		1.2883199 0.112725 -0.63368601 0.108811 -0.71072799 -0.602772 -0.77525198 
		0.99433303 -0.48210001 0.92426997 -0.19994199 0.79702902 -0.0538597 0.0109472 
		-0.69204402 0.0109472 -0.66312802 0.0104017 -0.69204402 0.0104017 -0.66312802 
		0.238461 -0.87631601 0.47536501 -0.032902401 0.64811999 -0.0095545696 0.224912 
		0.54684699 0.52208501 -0.0077970098 0.222349 0.54940999 0.108266 -0.71072799 
		0.50742799 -0.0520842 0.82227498 -0.47694299 0.88546902 -0.16392501 0.61974001 
		-0.0505661 0.66376299 -0.147149 0.93767297 -0.45320499 0.58680803 -0.33403501 
		0.633376 -0.36305201 0.782323 -0.52220899 0.76313698 -0.194222 0.64607102 
		-0.0304984 -0.20939299 0.68921298 1.58424 -0.188444 1.70472 -0.29630801 1.58216 
		-0.117549 -0.204652 0.79928398 1.7151999 -0.239381 -0.28758901 -0.262555 
		1.88151 -0.129316 -0.42811301 0.58213598 1.88151 -0.490428 1.8794301 -0.419534 
		-0.690099 -0.86143303 -0.18544599 0.499212 -0.64513701 -0.72153801 1.82267 
		0.65866101 0.112179 -0.63368601 0.222103 -0.78183502 0.13251001 -0.65074003 
		0.133487 -0.70437199 0.200743 -0.70910001 0.22039101 -0.78000402 0.236748 
		-0.87448502 0.23786899 -0.80629802 0.276889 -0.80125099 0.202455 -0.710931 
		-0.66430199 1.46823 -0.60099798 1.21392 -0.72500998 1.30371 -0.86337203 1.28869 
		-0.98520398 1.33002 0.134222 -0.65257102 -0.89041299 1.07752 -0.69517899 
		-0.51569098 -0.75043601 -0.78088599 -0.78860098 -0.65174401 -0.86145502 -0.727305 
		-0.87770897 -0.85380602 -0.98486698 1.33015 1.19921 -0.35733899 1.21566 -0.321594 
		1.18016 -0.36429101 1.1732301 -0.25619301 1.16102 -0.36015701 1.12621 -0.30362099 
		1.1358401 -0.26455599 -0.86303699 1.28881 -0.98136801 -0.856143 -0.98136801 
		-0.76668698 -0.98136801 -0.691284 -0.98136801 -0.94835502 -0.98016 -0.94835502 
		-0.98016 -0.691284 -0.98016 -0.76668698 -0.98016 -0.856143 -0.87650102 -0.85380602 
		-0.860246 -0.727305 -0.78739297 -0.65174401 1.44865 -0.49297899 -0.72467399 
		1.30383 1.36443 -0.53311402 1.3408 -0.43071899 -0.74922699 -0.78088599 1.36488 
		-0.532772 -0.69397098 -0.51569098 -0.60066199 1.2140501 -0.64392799 -0.72153801 
		-0.68889099 -0.86143303 -0.60156298 -0.77525198 1.13792 -0.265273 1.12828 
		-0.30433699 1.16309 -0.360874 1.1753 -0.25691 1.18223 -0.365008 1.21773 -0.32231101 
		1.20129 -0.35805601 1.34036 -0.431061 1.44821 -0.49332201 1.8555 0.54570502 
		1.6320699 0.53447998 1.5900199 0.65003502 1.81364 0.75646102 1.5900199 0.757061 
		1.61917 0.87149101 -0.141513 0.59284502 -0.30046299 -0.31510901 -0.428363 
		-0.406268 -0.43251601 -0.14518 -0.42811301 0.79155898 -0.205809 0.91853303 
		0.113892 -0.635517 0.114437 -0.635517 0.13476799 -0.65257102 0.20300101 -0.710931 
		0.22264899 -0.78183502 0.239006 -0.87631601 0.240127 -0.80812901 0.279147 
		-0.80308199 -0.663966 1.4683599 -0.57847399 1.28844;
	setAttr ".cuvs" -type "string" "map1";
	setAttr ".ds" no;
	setAttr -s 88 ".vt[0:87]"  0 -0.097935498 0.00960794 0 0.024776701 
		-0.029237101 0 0.0754987 0.150373 0 0.092047602 0.122586 0 0.101584 0.083294101 
		0 0.104516 0.0222371 0 0.11192 0.0089215497 0 0.114149 -0.04129 0 0.12685999 
		0.0342815 -0.0148155 0.109853 0.104079 -0.0196121 0.123078 0.0342815 -0.0260594 
		0.0709069 0.075489901 -0.034824502 0.099323504 0.00031762401 -0.036217101 
		0.090105899 0.035794601 -0.043822099 0.0623242 0.16288701 -0.045122702 0.101205 
		-0.0412944 -0.061903801 -0.097935498 0.00960794 -0.074443802 0.069935098 
		0.071521997 -0.078616001 0.093915999 0.089576602 -0.0808644 0.056216002 0.12839 
		-0.0809431 0.058024101 -0.043691099 -0.082099102 0.084791899 0.111181 -0.086722396 
		0.074099101 0.038635202 -0.087854899 -0.0161187 0.142956 -0.093131498 0.0236018 
		0.067391098 -0.100247 -0.00043428299 0.055658199 -0.100636 -0.0077281301 
		-0.022507099 0.100636 -0.0077281501 -0.022507099 0.100247 -0.00043429999 
		0.055658199 0.093131401 0.0236018 0.067391098 0.087854899 -0.0161187 0.142956 
		0.086722299 0.074099101 0.038635202 0.082098998 0.084791899 0.111181 0.080943003 
		0.058024101 -0.043691099 0.080864303 0.056216002 0.12839 0.078615896 0.093915999 
		0.089576602 0.074443698 0.069935098 0.071521997 0.0619037 -0.097935498 0.00960794 
		0.045122601 0.101205 -0.0412944 0.043822099 0.0623242 0.16288701 0.036217 
		0.090105899 0.035794601 0.034824401 0.099323504 0.00031762401 0.0260593 0.0709069 
		0.075489901 0.0196121 0.123078 0.0342815 0.0148155 0.109853 0.104079 0 -0.19687 
		-0.0021716901 0 -0.150581 0.12161 0 -0.088279597 0.183321 0 -0.0069870101 
		0.19012301 -0.0107863 -0.0046696002 0.20035399 -0.0107863 0.061509199 0.19048899 
		-0.085333601 -0.13055401 0.13617299 -0.085531898 0.0066037602 0.182009 -0.090017401 
		-0.157499 0.019206099 -0.122632 -0.077314302 -0.00869497 -0.13228901 -0.067411102 
		0.123923 0.13228901 -0.067411102 0.123923 0.122632 -0.077314302 -0.00869497 
		0.0900172 -0.157499 0.019206 0.085531898 0.0066037499 0.182009 0.085333601 
		-0.13055401 0.13617299 0.0107862 0.061509199 0.19048899 0.0107862 -0.0046696002 
		0.20035399 0.125834 0.045400001 0.050968502 0.107025 0.038083199 0.0813381 
		0.096530102 0.093014397 0.119765 0.087983303 0.102139 0.091583498 -0.078615896 
		0.093915999 0.089576602 -0.0879834 0.102139 0.091583498 -0.096530199 0.093014501 
		0.119765 -0.107025 0.0380833 0.0813381 -0.125834 0.045400001 0.050968502 
		0.094828099 0.070484899 -0.041367002 0.080943003 0.058024101 -0.043691199 
		0.080544204 0.083764002 -0.075090602 0.074723497 0.106223 -0.031583101 0.067731902 
		0.104079 0.0010674 0.0437993 0.128582 0.0032446398 0.0434516 0.124293 0.027941501 
		0.034824401 0.099323504 0.00031762599 -0.034824502 0.099323504 0.00031762599 
		-0.0434516 0.124293 0.027941501 -0.0437994 0.128582 0.0032446398 -0.067731902 
		0.104079 0.0010674 -0.074723497 0.106223 -0.031583101 -0.0805443 0.083764002 
		-0.075090602 -0.0809431 0.058024101 -0.043691199 -0.094828203 0.070485003 
		-0.041367002;
	setAttr -s 251 ".ed";
	setAttr ".ed[0:165]"  16 25 0 25 26 0 
		26 16 0 10 13 0 13 4 0 4 10 
		0 20 22 0 22 13 0 13 20 0 5 
		13 0 10 5 0 17 11 0 11 22 0 
		22 17 0 11 13 0 11 9 0 9 4 
		0 4 11 0 11 18 0 18 9 0 19 
		23 0 23 14 0 14 19 0 14 3 0 
		3 19 0 10 8 0 8 5 0 4 8 
		0 0 16 0 16 1 0 1 0 0 26 
		1 0 26 20 0 20 1 0 19 21 0 
		21 24 0 24 19 0 3 21 0 9 3 
		0 3 4 0 9 21 0 17 18 0 22 
		24 0 24 17 0 20 24 0 24 23 0 
		14 2 0 2 3 0 25 24 0 24 26 
		0 15 12 0 12 7 0 7 15 0 15 
		20 0 20 12 0 12 6 0 6 7 0 
		7 1 0 1 15 0 24 18 0 37 27 
		0 27 28 0 28 37 0 43 4 0 4 
		40 0 40 43 0 33 40 0 40 31 0 
		31 33 0 5 43 0 40 5 0 36 31 
		0 31 42 0 42 36 0 40 42 0 42 
		4 0 4 44 0 44 42 0 44 35 0 
		35 42 0 34 39 0 39 30 0 30 34 
		0 34 3 0 3 39 0 8 43 0 1 
		37 0 37 0 0 1 27 0 1 33 0 
		33 27 0 34 29 0 29 32 0 32 34 
		0 32 3 0 3 44 0 32 44 0 35 
		36 0 36 29 0 29 31 0 29 33 0 
		30 29 0 2 39 0 27 29 0 29 28 
		0 38 7 0 7 41 0 41 38 0 41 
		33 0 33 38 0 6 41 0 38 1 0 
		35 29 0 14 50 0 50 2 0 52 49 
		0 49 50 0 50 52 0 46 51 0 51 
		45 0 45 46 0 55 52 0 52 23 0 
		23 55 0 14 52 0 52 51 0 51 47 
		0 47 52 0 53 55 0 55 54 0 54 
		53 0 55 25 0 25 54 0 47 49 0 
		53 51 0 51 55 0 46 47 0 16 54 
		0 48 2 0 50 48 0 49 48 0 47 
		48 0 0 45 0 45 16 0 16 53 0 
		55 24 0 45 53 0 2 61 0 61 39 
		0 59 61 0 61 62 0 62 59 0 45 
		60 0 60 46 0 56 30 0 30 59 0 
		59 56 0 59 39 0 59 47 0 47 60 
		0 60 59 0 58 57 0 57 56 0 56 
		58 0 57 28 0 28 56 0;
	setAttr ".ed[166:250]" 62 47 0 56 60 0 60 
		58 0 57 37 0 48 61 0 48 62 0 
		37 45 0 58 37 0 29 56 0 58 45 
		0 44 65 0 65 66 0 66 44 0 65 
		63 0 63 66 0 66 35 0 32 65 0 
		35 64 0 64 29 0 66 64 0 64 32 
		0 64 65 0 63 64 0 9 68 0 68 
		69 0 69 9 0 68 71 0 71 69 0 
		9 67 0 67 68 0 69 21 0 24 70 
		0 70 67 0 67 24 0 70 68 0 21 
		70 0 69 70 0 70 71 0 77 6 0 
		6 78 0 78 77 0 6 5 0 5 78 
		0 75 77 0 77 76 0 76 75 0 78 
		76 0 77 79 0 79 6 0 40 78 0 
		75 79 0 40 76 0 76 72 0 72 75 
		0 73 72 0 72 40 0 40 73 0 75 
		73 0 73 79 0 75 74 0 74 73 0 
		74 72 0 82 81 0 81 6 0 6 82 
		0 81 5 0 84 83 0 83 82 0 82 
		84 0 83 81 0 6 80 0 80 82 0 
		81 13 0 80 84 0 83 13 0 84 87 
		0 87 83 0 86 13 0 13 87 0 87 
		86 0 80 86 0 86 84 0 86 85 0 
		85 84 0 87 85 0;
	setAttr -s 486 ".n";
	setAttr ".n[0:165]" -type "float3"  -0.094114117 -0.117571 -0.98859477 
		-0.9166317 0.30425203 -0.25926247 -0.81721139 -0.13133788 -0.56117368 -0.56430775 
		0.75657219 -0.33038673 -0.74044025 0.40174738 0.53883874 5.0116716e-007 0.95725876 
		0.28923288 -0.7451216 0.40046445 -0.53331232 -0.60270047 0.77977991 0.16939774 
		-0.74044025 0.40174738 0.53883874 1.3272161e-007 0.97265232 -0.2322661 -0.74044025 
		0.40174738 0.53883874 -0.56430775 0.75657219 -0.33038673 -0.54011905 0.78095639 
		-0.31365368 -0.31745893 0.91273129 -0.25717959 -0.60270047 0.77977991 0.16939774 
		-0.31745893 0.91273129 -0.25717959 -0.74044025 0.40174738 0.53883874 -0.60270047 
		0.77977991 0.16939774 -0.31745893 0.91273129 -0.25717959 0.070947744 0.99377018 
		-0.085949324 5.0116716e-007 0.95725876 0.28923288 5.0116716e-007 0.95725876 
		0.28923288 -0.74044025 0.40174738 0.53883874 -0.31745893 0.91273129 -0.25717959 
		-0.31745893 0.91273129 -0.25717959 -0.22327672 0.55337149 -0.8024509 0.070947744 
		0.99377018 -0.085949324 -0.75765043 0.42307484 0.49696425 -0.87524247 0.46728843 
		0.12486854 -0.51245564 0.76090848 0.3980045 -0.75765043 0.42307484 0.49696425 
		-0.51245564 0.76090848 0.3980045 9.3527206e-008 0.82006937 0.57226413 1.3272161e-007 
		0.97265232 -0.2322661 -0.56430775 0.75657219 -0.33038673 0 0.95378804 -0.3004801 
		5.0116716e-007 0.95725876 0.28923288 0 0.95378804 -0.3004801 -0.56430775 
		0.75657219 -0.33038673 0 -0.093894944 -0.9955821 -0.094114117 -0.117571 -0.98859477 
		-3.3063813e-008 -0.23002407 -0.97318488 -0.81721139 -0.13133788 -0.56117368 
		-3.3063813e-008 -0.23002407 -0.97318488 -0.094114117 -0.117571 -0.98859477 
		-3.3063813e-008 -0.23002407 -0.97318488 -0.81721139 -0.13133788 -0.56117368 
		-0.7451216 0.40046445 -0.53331232 -0.75765043 0.42307484 0.49696425 -0.17222241 
		-0.097600505 0.98021102 -0.96968406 0.24399295 0.013425326 -0.17222241 -0.097600505 
		0.98021102 -0.75765043 0.42307484 0.49696425 9.3527206e-008 0.82006937 0.57226413 
		5.0116716e-007 0.95725876 0.28923288 0.070947744 0.99377018 -0.085949324 
		9.3527206e-008 0.82006937 0.57226413 0.070947744 0.99377018 -0.085949324 
		-0.17222241 -0.097600505 0.98021102 9.3527206e-008 0.82006937 0.57226413 
		-0.54011905 0.78095639 -0.31365368 -0.22327672 0.55337149 -0.8024509 -0.31745893 
		0.91273129 -0.25717959 -0.60270047 0.77977991 0.16939774 -0.96968406 0.24399295 
		0.013425326 -0.54011905 0.78095639 -0.31365368 -0.60270047 0.77977991 0.16939774 
		-0.7451216 0.40046445 -0.53331232 -0.96968406 0.24399295 0.013425326 -0.75765043 
		0.42307484 0.49696425 -0.96968406 0.24399295 0.013425326 -0.87524247 0.46728843 
		0.12486854 -0.51245564 0.76090848 0.3980045 -2.6807524e-007 0.87273139 0.48820072 
		9.3527206e-008 0.82006937 0.57226413 -0.81721139 -0.13133788 -0.56117368 
		-0.9166317 0.30425203 -0.25926247 -0.96968406 0.24399295 0.013425326 -0.96968406 
		0.24399295 0.013425326 -0.7451216 0.40046445 -0.53331232 -0.81721139 -0.13133788 
		-0.56117368 -0.36648214 0.59422827 -0.71594936 -0.47826952 0.86891353 0.12746604 
		3.5677314e-007 0.90274203 -0.43018225 -0.47826952 0.86891353 0.12746604 -0.36648214 
		0.59422827 -0.71594936 -0.7451216 0.40046445 -0.53331232 -0.47826952 0.86891353 
		0.12746604 -5.260762e-009 0.99313873 -0.11694235 3.5677314e-007 0.90274203 
		-0.43018225 -0.36648214 0.59422827 -0.71594936 3.5677314e-007 0.90274203 
		-0.43018225 -3.3063813e-008 -0.23002407 -0.97318488 -0.7451216 0.40046445 
		-0.53331232 -0.36648214 0.59422827 -0.71594936 -3.3063813e-008 -0.23002407 
		-0.97318488 -0.54011905 0.78095639 -0.31365368 -0.96968406 0.24399295 0.013425326 
		-0.22327672 0.55337149 -0.8024509 0.094113909 -0.11757065 -0.98859477 0.81721133 
		-0.13133676 -0.56117398 0.9166314 0.30425349 -0.25926194 0.56430864 0.75657135 
		-0.33038688 5.0116716e-007 0.95725876 0.28923288 0.74044079 0.40174592 0.5388391 
		0.74512142 0.4004648 -0.53331226 0.74044079 0.40174592 0.5388391 0.60270035 
		0.77977985 0.16939777 1.3272161e-007 0.97265232 -0.2322661 0.56430864 0.75657135 
		-0.33038688 0.74044079 0.40174592 0.5388391 0.54011893 0.78095639 -0.31365365 
		0.60270035 0.77977985 0.16939777 0.31745943 0.91273105 -0.2571798 0.31745943 
		0.91273105 -0.2571798 0.60270035 0.77977985 0.16939777 0.74044079 0.40174592 
		0.5388391 0.31745943 0.91273105 -0.2571798 5.0116716e-007 0.95725876 0.28923288 
		-0.070947766 0.99377018 -0.085949123 5.0116716e-007 0.95725876 0.28923288 
		0.31745943 0.91273105 -0.2571798 0.74044079 0.40174592 0.5388391 0.31745943 
		0.91273105 -0.2571798 -0.070947766 0.99377018 -0.085949123 0.18045418 0.43222436 
		-0.88352609 0.75765067 0.42307526 0.49696353 0.5124557 0.76090842 0.39800444 
		0.87524235 0.46728876 0.124868 0.75765067 0.42307526 0.49696353 9.3527206e-008 
		0.82006937 0.57226413 0.5124557 0.76090842 0.39800444 1.3272161e-007 0.97265232 
		-0.2322661 0 0.95378804 -0.3004801 0.56430864 0.75657135 -0.33038688 5.0116716e-007 
		0.95725876 0.28923288 0.56430864 0.75657135 -0.33038688 0 0.95378804 -0.3004801 
		0 -0.093894944 -0.9955821 -3.3063813e-008 -0.23002407 -0.97318488 0.094113909 
		-0.11757065 -0.98859477 0.81721133 -0.13133676 -0.56117398 0.094113909 -0.11757065 
		-0.98859477 -3.3063813e-008 -0.23002407 -0.97318488 -3.3063813e-008 -0.23002407 
		-0.97318488 0.74512142 0.4004648 -0.53331226 0.81721133 -0.13133676 -0.56117398 
		0.75765067 0.42307526 0.49696353 0.96968371 0.243994 0.013425356 0.17222105 
		-0.09760116 0.9802112 0.17222105 -0.09760116 0.9802112 9.3527206e-008 0.82006937 
		0.57226413 0.75765067 0.42307526 0.49696353 5.0116716e-007 0.95725876 0.28923288 
		9.3527206e-008 0.82006937 0.57226413 -0.070947766 0.99377018 -0.085949123 
		-0.070947766 0.99377018 -0.085949123 9.3527206e-008 0.82006937 0.57226413 
		0.17222105 -0.09760116 0.9802112 0.54011893 0.78095639 -0.31365365 0.31745943 
		0.91273105 -0.2571798 0.18045418 0.43222436 -0.88352609 0.60270035 0.77977985 
		0.16939777 0.54011893 0.78095639 -0.31365365 0.96968371 0.243994 0.013425356 
		0.60270035 0.77977985 0.16939777;
	setAttr ".n[166:331]" -type "float3"  0.96968371 0.243994 0.013425356 
		0.74512142 0.4004648 -0.53331226 0.75765067 0.42307526 0.49696353 0.87524235 
		0.46728876 0.124868 0.96968371 0.243994 0.013425356 0.5124557 0.76090842 
		0.39800444 9.3527206e-008 0.82006937 0.57226413 -2.6807524e-007 0.87273139 
		0.48820072 0.81721133 -0.13133676 -0.56117398 0.96968371 0.243994 0.013425356 
		0.9166314 0.30425349 -0.25926194 0.96968371 0.243994 0.013425356 0.81721133 
		-0.13133676 -0.56117398 0.74512142 0.4004648 -0.53331226 0.36648229 0.59422821 
		-0.71594936 3.5677314e-007 0.90274203 -0.43018225 0.47826993 0.86891329 0.12746605 
		0.47826993 0.86891329 0.12746605 0.74512142 0.4004648 -0.53331226 0.36648229 
		0.59422821 -0.71594936 0.47826993 0.86891329 0.12746605 3.5677314e-007 0.90274203 
		-0.43018225 -5.260762e-009 0.99313873 -0.11694235 0.36648229 0.59422821 -0.71594936 
		-3.3063813e-008 -0.23002407 -0.97318488 3.5677314e-007 0.90274203 -0.43018225 
		0.74512142 0.4004648 -0.53331226 -3.3063813e-008 -0.23002407 -0.97318488 
		0.36648229 0.59422821 -0.71594936 0.54011893 0.78095639 -0.31365365 0.18045418 
		0.43222436 -0.88352609 0.96968371 0.243994 0.013425356 -0.51245564 0.76090848 
		0.3980045 0.20080683 0.54577827 0.81351256 -2.6807524e-007 0.87273139 0.48820072 
		-0.66292608 0.22963533 0.71259844 0.25894925 -0.01052826 0.96583354 0.20080683 
		0.54577827 0.81351256 0 -0.8390345 0.54407817 -0.42448229 -0.68986136 0.58643508 
		5.982843e-008 -0.78398782 -0.62077612 -0.98515624 0.12190415 0.1208576 -0.66292608 
		0.22963533 0.71259844 -0.87524247 0.46728843 0.12486854 -0.66292608 0.22963533 
		0.71259844 0.20080683 0.54577827 0.81351256 -0.51245564 0.76090848 0.3980045 
		-0.66292608 0.22963533 0.71259844 -0.42448229 -0.68986136 0.58643508 -5.4293719e-007 
		-0.36645234 0.93043679 -0.6224364 -0.63296866 -0.4603515 -0.98515624 0.12190415 
		0.1208576 -0.55934364 0.10305589 -0.82250488 -0.55934364 0.10305589 -0.82250488 
		-0.98515624 0.12190415 0.1208576 -0.9166317 0.30425203 -0.25926247 -5.4293719e-007 
		-0.36645234 0.93043679 0.25894925 -0.01052826 0.96583354 -0.66292608 0.22963533 
		0.71259844 -0.98515624 0.12190415 0.1208576 -0.6224364 -0.63296866 -0.4603515 
		-0.42448229 -0.68986136 0.58643508 0 -0.8390345 0.54407817 -5.4293719e-007 
		-0.36645234 0.93043679 -0.42448229 -0.68986136 0.58643508 -0.9166317 0.30425203 
		-0.25926247 -0.094114117 -0.117571 -0.98859477 -0.55934364 0.10305589 -0.82250488 
		-0.51245564 0.76090848 0.3980045 -0.87524247 0.46728843 0.12486854 -0.66292608 
		0.22963533 0.71259844 -2.2410704e-006 0.10897666 0.9940443 -2.6807524e-007 
		0.87273139 0.48820072 0.20080683 0.54577827 0.81351256 0.20080683 0.54577827 
		0.81351256 0.25894925 -0.01052826 0.96583354 -2.2410704e-006 0.10897666 0.9940443 
		-5.4293719e-007 -0.36645234 0.93043679 -2.2410704e-006 0.10897666 0.9940443 
		0.25894925 -0.01052826 0.96583354 -0.094114117 -0.117571 -0.98859477 0 -0.093894944 
		-0.9955821 5.982843e-008 -0.78398782 -0.62077612 -0.6224364 -0.63296866 -0.4603515 
		-0.55934364 0.10305589 -0.82250488 -0.094114117 -0.117571 -0.98859477 -0.66292608 
		0.22963533 0.71259844 -0.98515624 0.12190415 0.1208576 -0.42448229 -0.68986136 
		0.58643508 -0.9166317 0.30425203 -0.25926247 -0.98515624 0.12190415 0.1208576 
		-0.96968406 0.24399295 0.013425326 5.982843e-008 -0.78398782 -0.62077612 
		-0.6224364 -0.63296866 -0.4603515 -0.094114117 -0.117571 -0.98859477 -0.6224364 
		-0.63296866 -0.4603515 5.982843e-008 -0.78398782 -0.62077612 -0.42448229 
		-0.68986136 0.58643508 -0.96968406 0.24399295 0.013425326 -0.98515624 0.12190415 
		0.1208576 -0.87524247 0.46728843 0.12486854 0.5124557 0.76090842 0.39800444 
		-2.6807524e-007 0.87273139 0.48820072 -0.20080857 0.54577821 0.81351215 0.66292584 
		0.22963528 0.71259874 -0.20080857 0.54577821 0.81351215 -0.25895166 -0.010528238 
		0.96583289 0 -0.8390345 0.54407817 5.982843e-008 -0.78398782 -0.62077612 
		0.42448255 -0.68986142 0.58643478 0.98515624 0.12190423 0.12085771 0.87524235 
		0.46728876 0.124868 0.66292584 0.22963528 0.71259874 0.66292584 0.22963528 
		0.71259874 0.5124557 0.76090842 0.39800444 -0.20080857 0.54577821 0.81351215 
		0.66292584 0.22963528 0.71259874 -5.4293719e-007 -0.36645234 0.93043679 0.42448255 
		-0.68986142 0.58643478 0.62243617 -0.63296849 -0.46035221 0.55934334 0.10305599 
		-0.82250494 0.98515624 0.12190423 0.12085771 0.55934334 0.10305599 -0.82250494 
		0.9166314 0.30425349 -0.25926194 0.98515624 0.12190423 0.12085771 -5.4293719e-007 
		-0.36645234 0.93043679 0.66292584 0.22963528 0.71259874 -0.25895166 -0.010528238 
		0.96583289 0.98515624 0.12190423 0.12085771 0.42448255 -0.68986142 0.58643478 
		0.62243617 -0.63296849 -0.46035221 0 -0.8390345 0.54407817 0.42448255 -0.68986142 
		0.58643478 -5.4293719e-007 -0.36645234 0.93043679 0.9166314 0.30425349 -0.25926194 
		0.55934334 0.10305599 -0.82250494 0.094113909 -0.11757065 -0.98859477 0.5124557 
		0.76090842 0.39800444 0.66292584 0.22963528 0.71259874 0.87524235 0.46728876 
		0.124868 -2.2410704e-006 0.10897666 0.9940443 -0.20080857 0.54577821 0.81351215 
		-2.6807524e-007 0.87273139 0.48820072 -0.20080857 0.54577821 0.81351215 -2.2410704e-006 
		0.10897666 0.9940443 -0.25895166 -0.010528238 0.96583289 -5.4293719e-007 
		-0.36645234 0.93043679 -0.25895166 -0.010528238 0.96583289 -2.2410704e-006 
		0.10897666 0.9940443 0.094113909 -0.11757065 -0.98859477 5.982843e-008 -0.78398782 
		-0.62077612 0 -0.093894944 -0.9955821 0.62243617 -0.63296849 -0.46035221 
		0.094113909 -0.11757065 -0.98859477 0.55934334 0.10305599 -0.82250494 0.66292584 
		0.22963528 0.71259874 0.42448255 -0.68986142 0.58643478 0.98515624 0.12190423 
		0.12085771 0.9166314 0.30425349 -0.25926194 0.96968371 0.243994 0.013425356 
		0.98515624 0.12190423 0.12085771 5.982843e-008 -0.78398782 -0.62077612 0.094113909 
		-0.11757065 -0.98859477 0.62243617 -0.63296849 -0.46035221 0.62243617 -0.63296849 
		-0.46035221 0.42448255 -0.68986142 0.58643478;
	setAttr ".n[332:485]" -type "float3"  5.982843e-008 -0.78398782 -0.62077612 
		0.96968371 0.243994 0.013425356 0.87524235 0.46728876 0.124868 0.98515624 
		0.12190423 0.12085771 -0.070947766 0.99377018 -0.085949123 0.51197398 0.11851355 
		0.85078621 0.024479579 0.6483435 -0.76095438 0.024479579 0.6483435 -0.76095438 
		0.51197398 0.11851355 0.85078621 0.95099056 0.27941528 -0.13245404 -0.070947766 
		0.99377018 -0.085949123 0.024479579 0.6483435 -0.76095438 0.18045418 0.43222436 
		-0.88352609 0.17222105 -0.09760116 0.9802112 0.51197398 0.11851355 0.85078621 
		-0.070947766 0.99377018 -0.085949123 0.96968371 0.243994 0.013425356 0.18045418 
		0.43222436 -0.88352609 0.2216883 -0.93894005 -0.26314616 0.18045418 0.43222436 
		-0.88352609 0.024479579 0.6483435 -0.76095438 0.2216883 -0.93894005 -0.26314616 
		0.96968371 0.243994 0.013425356 0.2216883 -0.93894005 -0.26314616 0.17222105 
		-0.09760116 0.9802112 0.17222105 -0.09760116 0.9802112 0.2216883 -0.93894005 
		-0.26314616 0.51197398 0.11851355 0.85078621 0.024479579 0.6483435 -0.76095438 
		0.95099056 0.27941528 -0.13245404 0.2216883 -0.93894005 -0.26314616 0.2216883 
		-0.93894005 -0.26314616 0.95099056 0.27941528 -0.13245404 0.51197398 0.11851355 
		0.85078621 0.070947744 0.99377018 -0.085949324 -0.024479052 0.64834321 -0.76095456 
		-0.51197523 0.11851426 0.85078537 -0.024479052 0.64834321 -0.76095456 -0.95099044 
		0.27941471 -0.13245602 -0.51197523 0.11851426 0.85078537 0.070947744 0.99377018 
		-0.085949324 -0.13559479 0.30700624 -0.9419986 -0.024479052 0.64834321 -0.76095456 
		-0.17222241 -0.097600505 0.98021102 0.070947744 0.99377018 -0.085949324 -0.51197523 
		0.11851426 0.85078537 -0.96968406 0.24399295 0.013425326 -0.2216924 -0.93893963 
		-0.2631442 -0.13559479 0.30700624 -0.9419986 -0.13559479 0.30700624 -0.9419986 
		-0.2216924 -0.93893963 -0.2631442 -0.024479052 0.64834321 -0.76095456 -0.96968406 
		0.24399295 0.013425326 -0.17222241 -0.097600505 0.98021102 -0.2216924 -0.93893963 
		-0.2631442 -0.17222241 -0.097600505 0.98021102 -0.51197523 0.11851426 0.85078537 
		-0.2216924 -0.93893963 -0.2631442 -0.024479052 0.64834321 -0.76095456 -0.2216924 
		-0.93893963 -0.2631442 -0.95099044 0.27941471 -0.13245602 -0.2216924 -0.93893963 
		-0.2631442 -0.51197523 0.11851426 0.85078537 -0.95099044 0.27941471 -0.13245602 
		0.09307868 0.90828031 -0.40787655 -5.260762e-009 0.99313873 -0.11694235 0.12867109 
		0.7473706 0.65182889 -5.260762e-009 0.99313873 -0.11694235 1.3272161e-007 
		0.97265232 -0.2322661 0.12867109 0.7473706 0.65182889 0.07561665 0.8191523 
		-0.56856978 0.09307868 0.90828031 -0.40787655 0.84073609 0.35842478 0.40582564 
		0.09307868 0.90828031 -0.40787655 0.12867109 0.7473706 0.65182889 0.84073609 
		0.35842478 0.40582564 -5.260762e-009 0.99313873 -0.11694235 0.09307868 0.90828031 
		-0.40787655 -0.49714962 0.18248615 -0.84825766 0.74044079 0.40174592 0.5388391 
		0.12867109 0.7473706 0.65182889 1.3272161e-007 0.97265232 -0.2322661 -0.49714962 
		0.18248615 -0.84825766 0.09307868 0.90828031 -0.40787655 0.07561665 0.8191523 
		-0.56856978 0.84073609 0.35842478 0.40582564 0.12867109 0.7473706 0.65182889 
		0.74044079 0.40174592 0.5388391 0.84073609 0.35842478 0.40582564 0.97129369 
		-0.13138911 0.19830644 0.07561665 0.8191523 -0.56856978 -0.31584674 -0.8038435 
		-0.50406009 0.97129369 -0.13138911 0.19830644 0.74044079 0.40174592 0.5388391 
		-0.49714962 0.18248615 -0.84825766 0.07561665 0.8191523 -0.56856978 -0.31584674 
		-0.8038435 -0.50406009 0.07561665 0.8191523 -0.56856978 0.53172868 -0.2168408 
		-0.81868476 -0.31584674 -0.8038435 -0.50406009 -0.31584674 -0.8038435 -0.50406009 
		0.53172868 -0.2168408 -0.81868476 0.97129369 -0.13138911 0.19830644 0.97129369 
		-0.13138911 0.19830644 0.53172868 -0.2168408 -0.81868476 0.07561665 0.8191523 
		-0.56856978 0.97129369 -0.13138911 0.19830644 0.84073609 0.35842478 0.40582564 
		0.74044079 0.40174592 0.5388391 -0.093079701 0.90828025 -0.40787619 -0.12867184 
		0.74737036 0.65182906 -5.260762e-009 0.99313873 -0.11694235 -5.260762e-009 
		0.99313873 -0.11694235 -0.12867184 0.74737036 0.65182906 1.3272161e-007 0.97265232 
		-0.2322661 -0.07561516 0.81915259 -0.56856954 -0.84073591 0.35842538 0.40582564 
		-0.093079701 0.90828025 -0.40787619 -0.093079701 0.90828025 -0.40787619 -0.84073591 
		0.35842538 0.40582564 -0.12867184 0.74737036 0.65182906 -5.260762e-009 0.99313873 
		-0.11694235 0.49715018 0.18248567 -0.84825742 -0.093079701 0.90828025 -0.40787619 
		-0.74044025 0.40174738 0.53883874 1.3272161e-007 0.97265232 -0.2322661 -0.12867184 
		0.74737036 0.65182906 0.49715018 0.18248567 -0.84825742 -0.07561516 0.81915259 
		-0.56856954 -0.093079701 0.90828025 -0.40787619 -0.84073591 0.35842538 0.40582564 
		-0.74044025 0.40174738 0.53883874 -0.12867184 0.74737036 0.65182906 -0.84073591 
		0.35842538 0.40582564 -0.07561516 0.81915259 -0.56856954 -0.97129411 -0.13138562 
		0.19830677 0.31584442 -0.80384421 -0.50406033 -0.74044025 0.40174738 0.53883874 
		-0.97129411 -0.13138562 0.19830677 0.49715018 0.18248567 -0.84825742 0.31584442 
		-0.80384421 -0.50406033 -0.07561516 0.81915259 -0.56856954 -0.07561516 0.81915259 
		-0.56856954 0.31584442 -0.80384421 -0.50406033 -0.53172982 -0.21683756 -0.81868488 
		0.31584442 -0.80384421 -0.50406033 -0.97129411 -0.13138562 0.19830677 -0.53172982 
		-0.21683756 -0.81868488 -0.97129411 -0.13138562 0.19830677 -0.07561516 0.81915259 
		-0.56856954 -0.53172982 -0.21683756 -0.81868488 -0.97129411 -0.13138562 0.19830677 
		-0.74044025 0.40174738 0.53883874 -0.84073591 0.35842538 0.40582564;
	setAttr -s 162 ".fc[0:161]" -type "polyFaces" 
		f 3 0 1 2 
		mu 0 3 18 28 29 
		f 3 3 4 5 
		mu 0 3 8 10 4 
		f 3 6 7 8 
		mu 0 3 24 23 10 
		f 3 9 -4 10 
		mu 0 3 3 10 8 
		f 3 11 12 13 
		mu 0 3 20 11 23 
		f 3 14 -8 -13 
		mu 0 3 11 10 23 
		f 3 15 16 17 
		mu 0 3 11 9 4 
		f 3 -5 -15 -18 
		mu 0 3 4 10 11 
		f 3 18 19 -16 
		mu 0 3 11 21 9 
		f 3 20 21 22 
		mu 0 3 22 27 14 
		f 3 -23 23 24 
		mu 0 3 22 14 1 
		f 3 -11 25 26 
		mu 0 3 3 8 5 
		f 3 27 -26 -6 
		mu 0 3 4 5 8 
		f 3 28 29 30 
		mu 0 3 12 18 16 
		f 3 31 -30 -3 
		mu 0 3 29 16 18 
		f 3 -32 32 33 
		mu 0 3 16 29 24 
		f 3 34 35 36 
		mu 0 3 22 25 26 
		f 3 -35 -25 37 
		mu 0 3 25 22 1 
		f 3 -17 38 39 
		mu 0 3 4 9 1 
		f 3 40 -38 -39 
		mu 0 3 9 25 1 
		f 3 41 -19 -12 
		mu 0 3 102 21 11 
		f 3 42 43 -14 
		mu 0 3 23 26 20 
		f 3 -7 44 -43 
		mu 0 3 23 24 26 
		f 3 -37 45 -21 
		mu 0 3 22 26 27 
		f 3 46 47 -24 
		mu 0 3 14 2 1 
		f 3 -2 48 49 
		mu 0 3 29 28 26 
		f 3 -45 -33 -50 
		mu 0 3 26 24 29 
		f 3 50 51 52 
		mu 0 3 15 13 7 
		f 3 -51 53 54 
		mu 0 3 13 15 24 
		f 3 55 56 -52 
		mu 0 3 13 6 7 
		f 3 -53 57 58 
		mu 0 3 19 17 0 
		f 3 -54 -59 -34 
		mu 0 3 30 19 0 
		f 3 -44 59 -42 
		mu 0 3 85 87 86 
		f 3 60 61 62 
		mu 0 3 18 29 28 
		f 3 63 64 65 
		mu 0 3 8 4 10 
		f 3 66 67 68 
		mu 0 3 24 10 23 
		f 3 69 -66 70 
		mu 0 3 3 8 10 
		f 3 71 72 73 
		mu 0 3 104 23 11 
		f 3 -73 -68 74 
		mu 0 3 11 23 10 
		f 3 75 76 77 
		mu 0 3 11 4 9 
		f 3 -76 -75 -65 
		mu 0 3 4 11 10 
		f 3 -78 78 79 
		mu 0 3 11 9 21 
		f 3 80 81 82 
		mu 0 3 22 14 27 
		f 3 83 84 -81 
		mu 0 3 22 1 14 
		f 3 -27 85 -70 
		mu 0 3 3 5 8 
		f 3 -64 -86 -28 
		mu 0 3 4 8 5 
		f 3 -31 86 87 
		mu 0 3 12 16 18 
		f 3 -61 -87 88 
		mu 0 3 29 18 16 
		f 3 89 90 -89 
		mu 0 3 16 24 29 
		f 3 91 92 93 
		mu 0 3 22 26 25 
		f 3 94 -84 -94 
		mu 0 3 25 1 22 
		f 3 -40 95 -77 
		mu 0 3 4 1 9 
		f 3 -96 -95 96 
		mu 0 3 9 1 25 
		f 3 -74 -80 97 
		mu 0 3 20 11 21 
		f 3 -72 98 99 
		mu 0 3 23 20 26 
		f 3 -100 100 -69 
		mu 0 3 23 26 24 
		f 3 -83 101 -92 
		mu 0 3 22 27 26 
		f 3 -85 -48 102 
		mu 0 3 14 1 2 
		f 3 103 104 -62 
		mu 0 3 29 26 28 
		f 3 -104 -91 -101 
		mu 0 3 26 29 24 
		f 3 105 106 107 
		mu 0 3 15 7 13 
		f 3 108 109 -108 
		mu 0 3 13 24 15 
		f 3 -107 -57 110 
		mu 0 3 13 7 6 
		f 3 111 -58 -106 
		mu 0 3 84 0 17 
		f 3 -90 -112 -110 
		mu 0 3 78 0 84 
		f 3 -98 112 -99 
		mu 0 3 33 32 31 
		f 3 113 114 -47 
		mu 0 3 106 103 100 
		f 3 115 116 117 
		mu 0 3 109 101 103 
		f 3 118 119 120 
		mu 0 3 93 108 92 
		f 3 121 122 123 
		mu 0 3 115 109 110 
		f 3 -118 -114 124 
		mu 0 3 109 103 106 
		f 3 125 126 127 
		mu 0 3 109 108 94 
		f 3 128 129 130 
		mu 0 3 111 115 114 
		f 3 -130 131 132 
		mu 0 3 114 115 113 
		f 3 133 -116 -128 
		mu 0 3 94 101 109 
		f 3 -129 134 135 
		mu 0 3 115 111 108 
		f 3 136 -127 -119 
		mu 0 3 93 94 108 
		f 3 -1 137 -133 
		mu 0 3 42 35 43 
		f 3 -22 -123 -125 
		mu 0 3 106 110 109 
		f 3 138 -115 139 
		mu 0 3 37 38 40 
		f 3 -117 140 -140 
		mu 0 3 40 39 37 
		f 3 141 -141 -134 
		mu 0 3 36 37 39 
		f 3 -29 142 143 
		mu 0 3 35 35 34 
		f 3 -131 -138 144 
		mu 0 3 41 43 35 
		f 3 -122 -136 -126 
		mu 0 3 109 115 108 
		f 3 -132 145 -49 
		mu 0 3 113 115 112 
		f 3 146 -145 -144 
		mu 0 3 92 111 107 
		f 3 -147 -120 -135 
		mu 0 3 111 92 108 
		f 3 -146 -124 -46 
		mu 0 3 112 115 110 
		f 3 -103 147 148 
		mu 0 3 49 38 40 
		f 3 149 150 151 
		mu 0 3 47 40 39 
		f 3 -121 152 153 
		mu 0 3 50 34 48 
		f 3 154 155 156 
		mu 0 3 44 46 47 
		f 3 157 -149 -150 
		mu 0 3 47 49 40 
		f 3 158 159 160 
		mu 0 3 47 36 48 
		f 3 161 162 163 
		mu 0 3 41 43 44 
		f 3 164 165 -163 
		mu 0 3 43 42 44 
		f 3 -159 -152 166 
		mu 0 3 36 47 39 
		f 3 167 168 -164 
		mu 0 3 44 48 41 
		f 3 -154 -160 -137 
		mu 0 3 50 48 36 
		f 3 -165 169 -63 
		mu 0 3 113 114 107 
		f 3 -158 -156 -82 
		mu 0 3 49 47 46 
		f 3 170 -148 -139 
		mu 0 3 116 103 100 
		f 3 -171 171 -151 
		mu 0 3 103 116 101 
		f 3 -167 -172 -142 
		mu 0 3 94 101 116 
		f 3 172 -143 -88 
		mu 0 3 35 34 35 
		f 3 173 -170 -162 
		mu 0 3 111 107 114 
		f 3 -161 -168 -157 
		mu 0 3 47 48 44 
		f 3 -105 174 -166 
		mu 0 3 42 45 44 
		f 3 -173 -174 175 
		mu 0 3 34 35 41 
		f 3 -169 -153 -176 
		mu 0 3 41 48 34 
		f 3 -102 -155 -175 
		mu 0 3 45 46 44 
		f 3 176 177 178 
		mu 0 3 57 53 55 
		f 3 -178 179 180 
		mu 0 3 199 198 51 
		f 3 -179 181 -79 
		mu 0 3 203 56 123 
		f 3 182 -177 -97 
		mu 0 3 122 119 124 
		f 3 -113 183 184 
		mu 0 3 54 123 52 
		f 3 -182 185 -184 
		mu 0 3 123 56 52 
		f 3 -185 186 -93 
		mu 0 3 120 118 122 
		f 3 -187 187 -183 
		mu 0 3 122 118 119 
		f 3 -181 188 -186 
		mu 0 3 204 117 121 
		f 3 -189 -180 -188 
		mu 0 3 197 51 198 
		f 3 189 190 191 
		mu 0 3 125 129 200 
		f 3 192 193 -191 
		mu 0 3 131 196 194 
		f 3 194 195 -190 
		mu 0 3 58 59 61 
		f 3 -41 -192 196 
		mu 0 3 62 60 201 
		f 3 197 198 199 
		mu 0 3 126 127 59 
		f 3 -199 200 -196 
		mu 0 3 59 127 61 
		f 3 -36 201 -198 
		mu 0 3 63 62 202 
		f 3 -197 202 -202 
		mu 0 3 62 201 202 
		f 3 -201 203 -193 
		mu 0 3 64 65 205 
		f 3 -203 -194 -204 
		mu 0 3 195 194 196 
		f 3 204 205 206 
		mu 0 3 81 95 83 
		f 3 207 208 -206 
		mu 0 3 95 96 83 
		f 3 209 210 211 
		mu 0 3 79 81 80 
		f 3 -207 212 -211 
		mu 0 3 81 83 80 
		f 3 -205 213 214 
		mu 0 3 95 81 90 
		f 3 215 -209 -71 
		mu 0 3 89 83 96 
		f 3 -214 -210 216 
		mu 0 3 90 81 79 
		f 3 -213 -216 217 
		mu 0 3 141 147 206 
		f 3 218 219 -212 
		mu 0 3 80 66 79 
		f 3 220 221 222 
		mu 0 3 82 67 206 
		f 3 -217 223 224 
		mu 0 3 90 79 68 
		f 3 225 226 -224 
		mu 0 3 133 99 82 
		f 3 -227 227 -221 
		mu 0 3 82 99 67 
		f 3 -228 -226 -220 
		mu 0 3 66 69 79 
		f 3 -219 -218 -222 
		mu 0 3 67 141 206 
		f 3 228 229 230 
		mu 0 3 135 134 97 
		f 3 -230 231 -208 
		mu 0 3 97 134 98 
		f 3 232 233 234 
		mu 0 3 137 136 135 
		f 3 -234 235 -229 
		mu 0 3 135 136 134 
		f 3 236 237 -231 
		mu 0 3 97 105 135 
		f 3 -10 -232 238 
		mu 0 3 132 98 134 
		f 3 239 -235 -238 
		mu 0 3 105 137 135 
		f 3 240 -239 -236 
		mu 0 3 209 207 208 
		f 3 -233 241 242 
		mu 0 3 136 137 140 
		f 3 243 244 245 
		mu 0 3 212 207 213 
		f 3 246 247 -240 
		mu 0 3 105 139 137 
		f 3 -248 248 249 
		mu 0 3 210 212 211 
		f 3 -246 250 -249 
		mu 0 3 212 213 211 
		f 3 -242 -250 -251 
		mu 0 3 140 137 138 
		f 3 -245 -241 -243 
		mu 0 3 213 207 209 ;
	setAttr ".ndt" 0;
createNode transform -n "ear_right" -p "pmd0_head010g";
createNode mesh -n "polySurfaceShape2" -p "ear_right";
	setAttr -k off ".v";
	setAttr ".vir" yes;
	setAttr ".vif" yes;
	setAttr ".uvst[0].uvsn" -type "string" "map1";
	setAttr -s 216 ".uvst[0].uvsp[0:215]" -type "float2" -0.89074898 
		1.07739 0.0145455 0.73478103 0.0122433 0.85523599 0.0075586098 0.345557 0.012742 
		0.57718903 0.0086103203 0.36811101 0.0094243595 0.34426001 0.0038874201 0.26238301 
		0.034471702 0.37721601 0.093462802 0.668459 0.105729 0.379664 0.060751099 
		0.54630202 0.29042301 0.249017 0.102107 0.340011 0.12515201 0.862046 0.13562299 
		0.27695701 0.20572899 0.124464 -0.902466 1.10873 0.37775901 0.28141201 -0.784814 
		1.15273 0.230039 0.54428399 0.19518299 0.60166699 0.23240399 0.76176703 0.226972 
		0.44592801 0.21873499 0.312673 0.26727599 0.69603199 0.338999 0.60634601 
		0.28187799 0.93121302 0.33674601 0.63917899 0.28031501 0.30753899 -0.69401097 
		1.1937799 1.83596 0.88111597 1.5900199 0.88132 1.68445 0.92168099 0.99102402 
		-0.48327699 0.81896502 -0.47812 0.79371899 -0.0550372 0.64276099 -0.031675901 
		0.47205499 -0.034079898 0.64481002 -0.0107321 0.51877499 -0.0089746704 0.93436301 
		-0.454382 0.63006598 -0.36423001 0.77901298 -0.523386 0.75982702 -0.1954 
		0.58349901 -0.33521199 0.66045302 -0.14832599 0.616431 -0.051743601 0.88215899 
		-0.16510201 0.50411803 -0.053261701 0.92096001 -0.20111901 1.85192 0.873927 
		-0.126103 -0.211899 -0.43251601 -0.049679 -0.121951 -0.14842901 -0.39578801 
		-0.132245 -0.287323 -0.30209401 -0.21069901 -0.0489625 1.58216 -0.478661 
		1.72536 -0.355115 -0.121951 -0.472987 1.72682 -0.31109199 -0.29121 -0.36663401 
		-0.43251601 -0.46973699 -0.42811301 0.824619 -0.20509 0.80835801 0.277435 
		-0.80125099 0.27860099 -0.80308199 0.238415 -0.80629802 0.237294 -0.87448502 
		0.74054599 0.65653098 0.74110001 0.65321302 0.74147803 0.65983599 0.74626899 
		0.66268802 0.74686003 0.65454501 0.74867702 0.64717603 0.75391299 0.64884698 
		0.75503302 0.65533 -0.69434702 1.19366 0.220936 -0.78000402 0.201288 -0.70910001 
		0.13403299 -0.70437199 0.239581 -0.80812901 0.133056 -0.65074003 -0.785151 
		1.1526099 1.74268 0.71350503 1.8358001 0.66889697 1.5900199 0.679829 -0.57880998 
		1.2883199 0.112725 -0.63368601 0.108811 -0.71072799 -0.602772 -0.77525198 
		0.99433303 -0.48210001 0.92426997 -0.19994199 0.79702902 -0.0538597 0.0109472 
		-0.69204402 0.0109472 -0.66312802 0.0104017 -0.69204402 0.0104017 -0.66312802 
		0.238461 -0.87631601 0.47536501 -0.032902401 0.64811999 -0.0095545696 0.224912 
		0.54684699 0.52208501 -0.0077970098 0.222349 0.54940999 0.108266 -0.71072799 
		0.50742799 -0.0520842 0.82227498 -0.47694299 0.88546902 -0.16392501 0.61974001 
		-0.0505661 0.66376299 -0.147149 0.93767297 -0.45320499 0.58680803 -0.33403501 
		0.633376 -0.36305201 0.782323 -0.52220899 0.76313698 -0.194222 0.64607102 
		-0.0304984 -0.20939299 0.68921298 1.58424 -0.188444 1.70472 -0.29630801 1.58216 
		-0.117549 -0.204652 0.79928398 1.7151999 -0.239381 -0.28758901 -0.262555 
		1.88151 -0.129316 -0.42811301 0.58213598 1.88151 -0.490428 1.8794301 -0.419534 
		-0.690099 -0.86143303 -0.18544599 0.499212 -0.64513701 -0.72153801 1.82267 
		0.65866101 0.112179 -0.63368601 0.222103 -0.78183502 0.13251001 -0.65074003 
		0.133487 -0.70437199 0.200743 -0.70910001 0.22039101 -0.78000402 0.236748 
		-0.87448502 0.23786899 -0.80629802 0.276889 -0.80125099 0.202455 -0.710931 
		-0.66430199 1.46823 -0.60099798 1.21392 -0.72500998 1.30371 -0.86337203 1.28869 
		-0.98520398 1.33002 0.134222 -0.65257102 -0.89041299 1.07752 -0.69517899 
		-0.51569098 -0.75043601 -0.78088599 -0.78860098 -0.65174401 -0.86145502 -0.727305 
		-0.87770897 -0.85380602 -0.98486698 1.33015 1.19921 -0.35733899 1.21566 -0.321594 
		1.18016 -0.36429101 1.1732301 -0.25619301 1.16102 -0.36015701 1.12621 -0.30362099 
		1.1358401 -0.26455599 -0.86303699 1.28881 -0.98136801 -0.856143 -0.98136801 
		-0.76668698 -0.98136801 -0.691284 -0.98136801 -0.94835502 -0.98016 -0.94835502 
		-0.98016 -0.691284 -0.98016 -0.76668698 -0.98016 -0.856143 -0.87650102 -0.85380602 
		-0.860246 -0.727305 -0.78739297 -0.65174401 1.44865 -0.49297899 -0.72467399 
		1.30383 1.36443 -0.53311402 1.3408 -0.43071899 -0.74922699 -0.78088599 1.36488 
		-0.532772 -0.69397098 -0.51569098 -0.60066199 1.2140501 -0.64392799 -0.72153801 
		-0.68889099 -0.86143303 -0.60156298 -0.77525198 1.13792 -0.265273 1.12828 
		-0.30433699 1.16309 -0.360874 1.1753 -0.25691 1.18223 -0.365008 1.21773 -0.32231101 
		1.20129 -0.35805601 1.34036 -0.431061 1.44821 -0.49332201 1.8555 0.54570502 
		1.6320699 0.53447998 1.5900199 0.65003502 1.81364 0.75646102 1.5900199 0.757061 
		1.61917 0.87149101 -0.141513 0.59284502 -0.30046299 -0.31510901 -0.428363 
		-0.406268 -0.43251601 -0.14518 -0.42811301 0.79155898 -0.205809 0.91853303 
		0.113892 -0.635517 0.114437 -0.635517 0.13476799 -0.65257102 0.20300101 -0.710931 
		0.22264899 -0.78183502 0.239006 -0.87631601 0.240127 -0.80812901 0.279147 
		-0.80308199 -0.663966 1.4683599 -0.57847399 1.28844;
	setAttr ".cuvs" -type "string" "map1";
	setAttr ".ds" no;
	setAttr -s 8 ".vt[0:7]"  0.126533 -0.052413002 0.084173001 
		0.125229 -0.060350001 0.0582291 0.114828 -0.031668901 0.020681201 0.114534 
		-0.0216111 0.089726903 0.104267 -0.0159027 0.017935701 0.095624402 0.0133464 
		0.0462921 0.0782618 -0.000201566 0.022552701 0.066618703 -0.025336901 0.049227301;
	setAttr -s 18 ".ed[0:17]"  5 2 0 2 4 
		0 4 5 0 4 6 0 6 5 0 0 
		5 0 5 3 0 3 0 0 1 2 0 
		5 1 0 0 1 0 7 3 0 5 7 
		0 7 0 0 4 7 0 7 6 0 2 
		7 0 1 7 0;
	setAttr -s 33 ".n[0:32]" -type "float3"  0.76031107 0.64044356 
		-0.10843942 0.49590716 -0.20815381 -0.84305871 0.07895764 0.088020414 -0.99298447 
		0.07895764 0.088020414 -0.99298447 -0.1018566 0.12162986 -0.98733556 0.76031107 
		0.64044356 -0.10843942 0.64629388 -0.38821641 0.65695679 0.76031107 0.64044356 
		-0.10843942 -0.17926936 0.36223817 0.91468352 0.71075749 -0.65560323 -0.25496703 
		0.49590716 -0.20815381 -0.84305871 0.76031107 0.64044356 -0.10843942 0.71075749 
		-0.65560323 -0.25496703 0.76031107 0.64044356 -0.10843942 0.64629388 -0.38821641 
		0.65695679 -0.7747637 -0.6280598 -0.072677694 -0.17926936 0.36223817 0.91468352 
		0.76031107 0.64044356 -0.10843942 0.64629388 -0.38821641 0.65695679 -0.17926936 
		0.36223817 0.91468352 -0.7747637 -0.6280598 -0.072677694 -0.1018566 0.12162986 
		-0.98733556 0.07895764 0.088020414 -0.99298447 -0.7747637 -0.6280598 -0.072677694 
		0.49590716 -0.20815381 -0.84305871 -0.7747637 -0.6280598 -0.072677694 0.07895764 
		0.088020414 -0.99298447 -0.7747637 -0.6280598 -0.072677694 0.49590716 -0.20815381 
		-0.84305871 0.71075749 -0.65560323 -0.25496703 0.71075749 -0.65560323 -0.25496703 
		0.64629388 -0.38821641 0.65695679 -0.7747637 -0.6280598 -0.072677694;
	setAttr -s 11 ".fc[0:10]" -type "polyFaces" 
		f 3 0 1 2 
		mu 0 3 190 187 189 
		f 3 3 4 -3 
		mu 0 3 189 191 190 
		f 3 5 6 7 
		mu 0 3 185 190 188 
		f 3 8 -1 9 
		mu 0 3 186 187 190 
		f 3 -10 -6 10 
		mu 0 3 186 190 185 
		f 3 11 -7 12 
		mu 0 3 74 77 73 
		f 3 -8 -12 13 
		mu 0 3 76 77 74 
		f 3 -4 14 15 
		mu 0 3 72 70 74 
		f 3 16 -15 -2 
		mu 0 3 71 74 70 
		f 3 -17 -9 17 
		mu 0 3 74 71 75 
		f 3 -11 -14 -18 
		mu 0 3 75 76 74 ;
	setAttr ".ndt" 0;
createNode transform -n "ear_left" -p "pmd0_head010g";
	setAttr ".t" -type "double3" 7.4505805969238281e-009 0 0 ;
createNode mesh -n "polySurfaceShape3" -p "ear_left";
	setAttr -k off ".v";
	setAttr ".vir" yes;
	setAttr ".vif" yes;
	setAttr ".uvst[0].uvsn" -type "string" "map1";
	setAttr -s 216 ".uvst[0].uvsp[0:215]" -type "float2" -0.89074898 
		1.07739 0.0145455 0.73478103 0.0122433 0.85523599 0.0075586098 0.345557 0.012742 
		0.57718903 0.0086103203 0.36811101 0.0094243595 0.34426001 0.0038874201 0.26238301 
		0.034471702 0.37721601 0.093462802 0.668459 0.105729 0.379664 0.060751099 
		0.54630202 0.29042301 0.249017 0.102107 0.340011 0.12515201 0.862046 0.13562299 
		0.27695701 0.20572899 0.124464 -0.902466 1.10873 0.37775901 0.28141201 -0.784814 
		1.15273 0.230039 0.54428399 0.19518299 0.60166699 0.23240399 0.76176703 0.226972 
		0.44592801 0.21873499 0.312673 0.26727599 0.69603199 0.338999 0.60634601 
		0.28187799 0.93121302 0.33674601 0.63917899 0.28031501 0.30753899 -0.69401097 
		1.1937799 1.83596 0.88111597 1.5900199 0.88132 1.68445 0.92168099 0.99102402 
		-0.48327699 0.81896502 -0.47812 0.79371899 -0.0550372 0.64276099 -0.031675901 
		0.47205499 -0.034079898 0.64481002 -0.0107321 0.51877499 -0.0089746704 0.93436301 
		-0.454382 0.63006598 -0.36423001 0.77901298 -0.523386 0.75982702 -0.1954 
		0.58349901 -0.33521199 0.66045302 -0.14832599 0.616431 -0.051743601 0.88215899 
		-0.16510201 0.50411803 -0.053261701 0.92096001 -0.20111901 1.85192 0.873927 
		-0.126103 -0.211899 -0.43251601 -0.049679 -0.121951 -0.14842901 -0.39578801 
		-0.132245 -0.287323 -0.30209401 -0.21069901 -0.0489625 1.58216 -0.478661 
		1.72536 -0.355115 -0.121951 -0.472987 1.72682 -0.31109199 -0.29121 -0.36663401 
		-0.43251601 -0.46973699 -0.42811301 0.824619 -0.20509 0.80835801 0.277435 
		-0.80125099 0.27860099 -0.80308199 0.238415 -0.80629802 0.237294 -0.87448502 
		0.74054599 0.65653098 0.74110001 0.65321302 0.74147803 0.65983599 0.74626899 
		0.66268802 0.74686003 0.65454501 0.74867702 0.64717603 0.75391299 0.64884698 
		0.75503302 0.65533 -0.69434702 1.19366 0.220936 -0.78000402 0.201288 -0.70910001 
		0.13403299 -0.70437199 0.239581 -0.80812901 0.133056 -0.65074003 -0.785151 
		1.1526099 1.74268 0.71350503 1.8358001 0.66889697 1.5900199 0.679829 -0.57880998 
		1.2883199 0.112725 -0.63368601 0.108811 -0.71072799 -0.602772 -0.77525198 
		0.99433303 -0.48210001 0.92426997 -0.19994199 0.79702902 -0.0538597 0.0109472 
		-0.69204402 0.0109472 -0.66312802 0.0104017 -0.69204402 0.0104017 -0.66312802 
		0.238461 -0.87631601 0.47536501 -0.032902401 0.64811999 -0.0095545696 0.224912 
		0.54684699 0.52208501 -0.0077970098 0.222349 0.54940999 0.108266 -0.71072799 
		0.50742799 -0.0520842 0.82227498 -0.47694299 0.88546902 -0.16392501 0.61974001 
		-0.0505661 0.66376299 -0.147149 0.93767297 -0.45320499 0.58680803 -0.33403501 
		0.633376 -0.36305201 0.782323 -0.52220899 0.76313698 -0.194222 0.64607102 
		-0.0304984 -0.20939299 0.68921298 1.58424 -0.188444 1.70472 -0.29630801 1.58216 
		-0.117549 -0.204652 0.79928398 1.7151999 -0.239381 -0.28758901 -0.262555 
		1.88151 -0.129316 -0.42811301 0.58213598 1.88151 -0.490428 1.8794301 -0.419534 
		-0.690099 -0.86143303 -0.18544599 0.499212 -0.64513701 -0.72153801 1.82267 
		0.65866101 0.112179 -0.63368601 0.222103 -0.78183502 0.13251001 -0.65074003 
		0.133487 -0.70437199 0.200743 -0.70910001 0.22039101 -0.78000402 0.236748 
		-0.87448502 0.23786899 -0.80629802 0.276889 -0.80125099 0.202455 -0.710931 
		-0.66430199 1.46823 -0.60099798 1.21392 -0.72500998 1.30371 -0.86337203 1.28869 
		-0.98520398 1.33002 0.134222 -0.65257102 -0.89041299 1.07752 -0.69517899 
		-0.51569098 -0.75043601 -0.78088599 -0.78860098 -0.65174401 -0.86145502 -0.727305 
		-0.87770897 -0.85380602 -0.98486698 1.33015 1.19921 -0.35733899 1.21566 -0.321594 
		1.18016 -0.36429101 1.1732301 -0.25619301 1.16102 -0.36015701 1.12621 -0.30362099 
		1.1358401 -0.26455599 -0.86303699 1.28881 -0.98136801 -0.856143 -0.98136801 
		-0.76668698 -0.98136801 -0.691284 -0.98136801 -0.94835502 -0.98016 -0.94835502 
		-0.98016 -0.691284 -0.98016 -0.76668698 -0.98016 -0.856143 -0.87650102 -0.85380602 
		-0.860246 -0.727305 -0.78739297 -0.65174401 1.44865 -0.49297899 -0.72467399 
		1.30383 1.36443 -0.53311402 1.3408 -0.43071899 -0.74922699 -0.78088599 1.36488 
		-0.532772 -0.69397098 -0.51569098 -0.60066199 1.2140501 -0.64392799 -0.72153801 
		-0.68889099 -0.86143303 -0.60156298 -0.77525198 1.13792 -0.265273 1.12828 
		-0.30433699 1.16309 -0.360874 1.1753 -0.25691 1.18223 -0.365008 1.21773 -0.32231101 
		1.20129 -0.35805601 1.34036 -0.431061 1.44821 -0.49332201 1.8555 0.54570502 
		1.6320699 0.53447998 1.5900199 0.65003502 1.81364 0.75646102 1.5900199 0.757061 
		1.61917 0.87149101 -0.141513 0.59284502 -0.30046299 -0.31510901 -0.428363 
		-0.406268 -0.43251601 -0.14518 -0.42811301 0.79155898 -0.205809 0.91853303 
		0.113892 -0.635517 0.114437 -0.635517 0.13476799 -0.65257102 0.20300101 -0.710931 
		0.22264899 -0.78183502 0.239006 -0.87631601 0.240127 -0.80812901 0.279147 
		-0.80308199 -0.663966 1.4683599 -0.57847399 1.28844;
	setAttr ".cuvs" -type "string" "map1";
	setAttr ".ds" no;
	setAttr -s 8 ".vt[0:7]"  -0.0782618 -0.000201552 0.022552701 
		-0.095624402 0.0133464 0.0462921 -0.104267 -0.0159027 0.017935701 -0.114534 
		-0.0216111 0.089726903 -0.114828 -0.031668901 0.020681201 -0.125229 -0.060350001 
		0.0582291 -0.126533 -0.052413002 0.084173001 -0.0666188 -0.025336901 0.049227301;
	setAttr -s 18 ".ed[0:17]"  1 2 0 2 4 
		0 4 1 0 1 0 0 0 2 0 6 
		3 0 3 1 0 1 6 0 5 1 0 
		4 5 0 5 6 0 7 1 0 3 7 
		0 6 7 0 0 7 0 7 2 0 7 
		4 0 7 5 0;
	setAttr -s 33 ".n[0:32]" -type "float3"  -0.76031107 0.64044356 
		-0.10843946 -0.078957364 0.088020101 -0.99298447 -0.49590686 -0.20815413 
		-0.84305894 -0.078957364 0.088020101 -0.99298447 -0.76031107 0.64044356 -0.10843946 
		0.10185673 0.12162954 -0.98733556 -0.64629352 -0.38821658 0.65695697 0.17927058 
		0.36223784 0.91468346 -0.76031107 0.64044356 -0.10843946 -0.71075726 -0.65560347 
		-0.25496712 -0.76031107 0.64044356 -0.10843946 -0.49590686 -0.20815413 -0.84305894 
		-0.71075726 -0.65560347 -0.25496712 -0.64629352 -0.38821658 0.65695697 -0.76031107 
		0.64044356 -0.10843946 0.774764 -0.62805957 -0.072677456 -0.76031107 0.64044356 
		-0.10843946 0.17927058 0.36223784 0.91468346 -0.64629352 -0.38821658 0.65695697 
		0.774764 -0.62805957 -0.072677456 0.17927058 0.36223784 0.91468346 0.10185673 
		0.12162954 -0.98733556 0.774764 -0.62805957 -0.072677456 -0.078957364 0.088020101 
		-0.99298447 -0.49590686 -0.20815413 -0.84305894 -0.078957364 0.088020101 
		-0.99298447 0.774764 -0.62805957 -0.072677456 0.774764 -0.62805957 -0.072677456 
		-0.71075726 -0.65560347 -0.25496712 -0.49590686 -0.20815413 -0.84305894 -0.71075726 
		-0.65560347 -0.25496712 0.774764 -0.62805957 -0.072677456 -0.64629352 -0.38821658 
		0.65695697;
	setAttr -s 11 ".fc[0:10]" -type "polyFaces" 
		f 3 0 1 2 
		mu 0 3 156 157 159 
		f 3 -1 3 4 
		mu 0 3 157 156 155 
		f 3 5 6 7 
		mu 0 3 161 158 156 
		f 3 8 -3 9 
		mu 0 3 160 156 159 
		f 3 10 -8 -9 
		mu 0 3 160 161 156 
		f 3 11 -7 12 
		mu 0 3 74 73 77 
		f 3 13 -13 -6 
		mu 0 3 76 74 77 
		f 3 14 15 -5 
		mu 0 3 72 74 70 
		f 3 -2 -16 16 
		mu 0 3 71 70 74 
		f 3 17 -10 -17 
		mu 0 3 74 75 71 
		f 3 -18 -14 -11 
		mu 0 3 75 74 76 ;
	setAttr ".ndt" 0;
createNode transform -n "beard" -p "pmd0_head010g";
	setAttr ".t" -type "double3" -5.5511151231257827e-017 0 0 ;
createNode mesh -n "polySurfaceShape4" -p "beard";
	setAttr -k off ".v";
	setAttr ".vir" yes;
	setAttr ".vif" yes;
	setAttr ".uvst[0].uvsn" -type "string" "map1";
	setAttr -s 216 ".uvst[0].uvsp[0:215]" -type "float2" -0.89074898 
		1.07739 0.0145455 0.73478103 0.0122433 0.85523599 0.0075586098 0.345557 0.012742 
		0.57718903 0.0086103203 0.36811101 0.0094243595 0.34426001 0.0038874201 0.26238301 
		0.034471702 0.37721601 0.093462802 0.668459 0.105729 0.379664 0.060751099 
		0.54630202 0.29042301 0.249017 0.102107 0.340011 0.12515201 0.862046 0.13562299 
		0.27695701 0.20572899 0.124464 -0.902466 1.10873 0.37775901 0.28141201 -0.784814 
		1.15273 0.230039 0.54428399 0.19518299 0.60166699 0.23240399 0.76176703 0.226972 
		0.44592801 0.21873499 0.312673 0.26727599 0.69603199 0.338999 0.60634601 
		0.28187799 0.93121302 0.33674601 0.63917899 0.28031501 0.30753899 -0.69401097 
		1.1937799 1.83596 0.88111597 1.5900199 0.88132 1.68445 0.92168099 0.99102402 
		-0.48327699 0.81896502 -0.47812 0.79371899 -0.0550372 0.64276099 -0.031675901 
		0.47205499 -0.034079898 0.64481002 -0.0107321 0.51877499 -0.0089746704 0.93436301 
		-0.454382 0.63006598 -0.36423001 0.77901298 -0.523386 0.75982702 -0.1954 
		0.58349901 -0.33521199 0.66045302 -0.14832599 0.616431 -0.051743601 0.88215899 
		-0.16510201 0.50411803 -0.053261701 0.92096001 -0.20111901 1.85192 0.873927 
		-0.126103 -0.211899 -0.43251601 -0.049679 -0.121951 -0.14842901 -0.39578801 
		-0.132245 -0.287323 -0.30209401 -0.21069901 -0.0489625 1.58216 -0.478661 
		1.72536 -0.355115 -0.121951 -0.472987 1.72682 -0.31109199 -0.29121 -0.36663401 
		-0.43251601 -0.46973699 -0.42811301 0.824619 -0.20509 0.80835801 0.277435 
		-0.80125099 0.27860099 -0.80308199 0.238415 -0.80629802 0.237294 -0.87448502 
		0.74054599 0.65653098 0.74110001 0.65321302 0.74147803 0.65983599 0.74626899 
		0.66268802 0.74686003 0.65454501 0.74867702 0.64717603 0.75391299 0.64884698 
		0.75503302 0.65533 -0.69434702 1.19366 0.220936 -0.78000402 0.201288 -0.70910001 
		0.13403299 -0.70437199 0.239581 -0.80812901 0.133056 -0.65074003 -0.785151 
		1.1526099 1.74268 0.71350503 1.8358001 0.66889697 1.5900199 0.679829 -0.57880998 
		1.2883199 0.112725 -0.63368601 0.108811 -0.71072799 -0.602772 -0.77525198 
		0.99433303 -0.48210001 0.92426997 -0.19994199 0.79702902 -0.0538597 0.0109472 
		-0.69204402 0.0109472 -0.66312802 0.0104017 -0.69204402 0.0104017 -0.66312802 
		0.238461 -0.87631601 0.47536501 -0.032902401 0.64811999 -0.0095545696 0.224912 
		0.54684699 0.52208501 -0.0077970098 0.222349 0.54940999 0.108266 -0.71072799 
		0.50742799 -0.0520842 0.82227498 -0.47694299 0.88546902 -0.16392501 0.61974001 
		-0.0505661 0.66376299 -0.147149 0.93767297 -0.45320499 0.58680803 -0.33403501 
		0.633376 -0.36305201 0.782323 -0.52220899 0.76313698 -0.194222 0.64607102 
		-0.0304984 -0.20939299 0.68921298 1.58424 -0.188444 1.70472 -0.29630801 1.58216 
		-0.117549 -0.204652 0.79928398 1.7151999 -0.239381 -0.28758901 -0.262555 
		1.88151 -0.129316 -0.42811301 0.58213598 1.88151 -0.490428 1.8794301 -0.419534 
		-0.690099 -0.86143303 -0.18544599 0.499212 -0.64513701 -0.72153801 1.82267 
		0.65866101 0.112179 -0.63368601 0.222103 -0.78183502 0.13251001 -0.65074003 
		0.133487 -0.70437199 0.200743 -0.70910001 0.22039101 -0.78000402 0.236748 
		-0.87448502 0.23786899 -0.80629802 0.276889 -0.80125099 0.202455 -0.710931 
		-0.66430199 1.46823 -0.60099798 1.21392 -0.72500998 1.30371 -0.86337203 1.28869 
		-0.98520398 1.33002 0.134222 -0.65257102 -0.89041299 1.07752 -0.69517899 
		-0.51569098 -0.75043601 -0.78088599 -0.78860098 -0.65174401 -0.86145502 -0.727305 
		-0.87770897 -0.85380602 -0.98486698 1.33015 1.19921 -0.35733899 1.21566 -0.321594 
		1.18016 -0.36429101 1.1732301 -0.25619301 1.16102 -0.36015701 1.12621 -0.30362099 
		1.1358401 -0.26455599 -0.86303699 1.28881 -0.98136801 -0.856143 -0.98136801 
		-0.76668698 -0.98136801 -0.691284 -0.98136801 -0.94835502 -0.98016 -0.94835502 
		-0.98016 -0.691284 -0.98016 -0.76668698 -0.98016 -0.856143 -0.87650102 -0.85380602 
		-0.860246 -0.727305 -0.78739297 -0.65174401 1.44865 -0.49297899 -0.72467399 
		1.30383 1.36443 -0.53311402 1.3408 -0.43071899 -0.74922699 -0.78088599 1.36488 
		-0.532772 -0.69397098 -0.51569098 -0.60066199 1.2140501 -0.64392799 -0.72153801 
		-0.68889099 -0.86143303 -0.60156298 -0.77525198 1.13792 -0.265273 1.12828 
		-0.30433699 1.16309 -0.360874 1.1753 -0.25691 1.18223 -0.365008 1.21773 -0.32231101 
		1.20129 -0.35805601 1.34036 -0.431061 1.44821 -0.49332201 1.8555 0.54570502 
		1.6320699 0.53447998 1.5900199 0.65003502 1.81364 0.75646102 1.5900199 0.757061 
		1.61917 0.87149101 -0.141513 0.59284502 -0.30046299 -0.31510901 -0.428363 
		-0.406268 -0.43251601 -0.14518 -0.42811301 0.79155898 -0.205809 0.91853303 
		0.113892 -0.635517 0.114437 -0.635517 0.13476799 -0.65257102 0.20300101 -0.710931 
		0.22264899 -0.78183502 0.239006 -0.87631601 0.240127 -0.80812901 0.279147 
		-0.80308199 -0.663966 1.4683599 -0.57847399 1.28844;
	setAttr ".cuvs" -type "string" "map1";
	setAttr ".ds" no;
	setAttr -s 21 ".vt[0:20]"  0 0.024776701 -0.029237101 0.131873 
		0.014982 -0.061055899 0.125723 0.062056299 -0.132553 0.114999 -0.023711501 
		-0.038750801 0.09753 0.0065740398 0.055658199 0.084480099 0.12198 -0.084694698 
		0.080943003 0.058024101 -0.0379325 0.041859802 0.100808 -0.02502 0.035896301 
		0.112926 -0.097083494 0 0.18859699 -0.084109701 0 0.13499901 -0.043081999 
		0 0.113584 -0.0084992703 0 0.176075 -0.12640201 -0.035896201 0.112926 -0.097083494 
		-0.041859802 0.100808 -0.02502 -0.0809431 0.058024101 -0.0379325 -0.084480204 
		0.12198 -0.084694698 -0.097530097 0.0065740598 0.055658199 -0.114999 -0.023711501 
		-0.038750801 -0.125723 0.062056299 -0.132553 -0.131873 0.014982 -0.061055899;
	setAttr -s 52 ".ed[0:51]"  8 12 0 12 5 
		0 5 8 0 0 3 0 3 4 0 4 
		0 0 7 6 0 6 5 0 5 7 0 
		5 9 0 9 10 0 10 5 0 10 7 
		0 10 11 0 11 7 0 6 1 0 1 
		5 0 3 1 0 6 3 0 6 4 0 
		0 12 0 8 0 0 2 0 0 8 2 
		0 2 1 0 1 0 0 5 2 0 12 
		9 0 13 16 0 16 12 0 12 13 0 
		0 17 0 17 18 0 18 0 0 14 16 
		0 16 15 0 15 14 0 16 10 0 9 
		16 0 14 10 0 14 11 0 16 20 0 
		20 15 0 18 15 0 20 18 0 17 15 
		0 0 13 0 19 13 0 0 19 0 0 
		20 0 20 19 0 19 16 0;
	setAttr -s 96 ".n[0:95]" -type "float3"  -0.12543945 -0.15527219 
		-0.97987521 5.469571e-007 -0.01169411 -0.99993163 0.72011083 0.67785966 0.14814407 
		5.2576606e-008 -0.7390148 -0.67368919 0.76683706 -0.61919808 0.16898099 0.68974906 
		-0.64254016 0.33374894 0.5004738 0.66152233 0.55849272 0.73675281 0.38364577 
		0.55678648 0.72011083 0.67785966 0.14814407 0.72011083 0.67785966 0.14814407 
		3.4053971e-007 0.93734324 0.34840739 1.3813998e-007 0.76702696 0.64161485 
		1.3813998e-007 0.76702696 0.64161485 0.5004738 0.66152233 0.55849272 0.72011083 
		0.67785966 0.14814407 0.5004738 0.66152233 0.55849272 1.3813998e-007 0.76702696 
		0.64161485 0 0.85019195 0.52647287 0.72011083 0.67785966 0.14814407 0.73675281 
		0.38364577 0.55678648 0.98605275 -0.088479355 0.14096589 0.76683706 -0.61919808 
		0.16898099 0.98605275 -0.088479355 0.14096589 0.73675281 0.38364577 0.55678648 
		0.73675281 0.38364577 0.55678648 0.68974906 -0.64254016 0.33374894 0.76683706 
		-0.61919808 0.16898099 5.2576606e-008 -0.7390148 -0.67368919 5.469571e-007 
		-0.01169411 -0.99993163 -0.12543945 -0.15527219 -0.97987521 0.12912121 -0.06490092 
		-0.98950267 5.2576606e-008 -0.7390148 -0.67368919 -0.12543945 -0.15527219 
		-0.97987521 5.2576606e-008 -0.7390148 -0.67368919 0.12912121 -0.06490092 
		-0.98950267 0.98605275 -0.088479355 0.14096589 0.72011083 0.67785966 0.14814407 
		0.12912121 -0.06490092 -0.98950267 -0.12543945 -0.15527219 -0.97987521 0.98605275 
		-0.088479355 0.14096589 0.12912121 -0.06490092 -0.98950267 0.72011083 0.67785966 
		0.14814407 5.2576606e-008 -0.7390148 -0.67368919 0.98605275 -0.088479355 
		0.14096589 0.76683706 -0.61919808 0.16898099 5.469571e-007 -0.01169411 -0.99993163 
		3.4053971e-007 0.93734324 0.34840739 0.72011083 0.67785966 0.14814407 0.12543994 
		-0.15527272 -0.97987503 -0.72011083 0.67785972 0.14814413 5.469571e-007 -0.01169411 
		-0.99993163 5.2576606e-008 -0.7390148 -0.67368919 -0.689749 -0.64254051 0.33374849 
		-0.766837 -0.61919832 0.16898052 -0.50047338 0.66152245 0.55849308 -0.72011083 
		0.67785972 0.14814413 -0.73675311 0.38364547 0.5567863 -0.72011083 0.67785972 
		0.14814413 1.3813998e-007 0.76702696 0.64161485 3.4053971e-007 0.93734324 
		0.34840739 1.3813998e-007 0.76702696 0.64161485 -0.72011083 0.67785972 0.14814413 
		-0.50047338 0.66152245 0.55849308 -0.50047338 0.66152245 0.55849308 0 0.85019195 
		0.52647287 1.3813998e-007 0.76702696 0.64161485 -0.72011083 0.67785972 0.14814413 
		-0.98605281 -0.088480219 0.14096504 -0.73675311 0.38364547 0.5567863 -0.766837 
		-0.61919832 0.16898052 -0.73675311 0.38364547 0.5567863 -0.98605281 -0.088480219 
		0.14096504 -0.73675311 0.38364547 0.5567863 -0.766837 -0.61919832 0.16898052 
		-0.689749 -0.64254051 0.33374849 5.2576606e-008 -0.7390148 -0.67368919 0.12543994 
		-0.15527272 -0.97987503 5.469571e-007 -0.01169411 -0.99993163 -0.12912142 
		-0.064901777 -0.98950261 0.12543994 -0.15527272 -0.97987503 5.2576606e-008 
		-0.7390148 -0.67368919 5.2576606e-008 -0.7390148 -0.67368919 -0.98605281 
		-0.088480219 0.14096504 -0.12912142 -0.064901777 -0.98950261 -0.72011083 
		0.67785972 0.14814413 0.12543994 -0.15527272 -0.97987503 -0.12912142 -0.064901777 
		-0.98950261 -0.98605281 -0.088480219 0.14096504 -0.72011083 0.67785972 0.14814413 
		-0.12912142 -0.064901777 -0.98950261 5.2576606e-008 -0.7390148 -0.67368919 
		-0.766837 -0.61919832 0.16898052 -0.98605281 -0.088480219 0.14096504 5.469571e-007 
		-0.01169411 -0.99993163 -0.72011083 0.67785972 0.14814413 3.4053971e-007 
		0.93734324 0.34840739;
	setAttr -s 32 ".fc[0:31]" -type "polyFaces" 
		f 3 0 1 2 
		mu 0 3 145 146 144 
		f 3 3 4 5 
		mu 0 3 179 174 177 
		f 3 6 7 8 
		mu 0 3 152 151 150 
		f 3 9 10 11 
		mu 0 3 150 163 164 
		f 3 12 -9 -12 
		mu 0 3 164 152 150 
		f 3 -13 13 14 
		mu 0 3 152 164 165 
		f 3 -8 15 16 
		mu 0 3 150 151 91 
		f 3 17 -16 18 
		mu 0 3 130 91 151 
		f 3 19 -5 -19 
		mu 0 3 151 149 130 
		f 3 20 -1 21 
		mu 0 3 0 146 145 
		f 3 22 -22 23 
		mu 0 3 142 0 145 
		f 3 -23 24 25 
		mu 0 3 0 142 88 
		f 3 26 -24 -3 
		mu 0 3 150 128 153 
		f 3 -25 -27 -17 
		mu 0 3 91 128 150 
		f 3 -26 -18 -4 
		mu 0 3 0 88 143 
		f 3 27 -10 -2 
		mu 0 3 166 163 150 
		f 3 28 29 30 
		mu 0 3 162 175 154 
		f 3 31 32 33 
		mu 0 3 176 192 193 
		f 3 34 35 36 
		mu 0 3 172 178 173 
		f 3 37 -11 38 
		mu 0 3 178 169 170 
		f 3 -38 -35 39 
		mu 0 3 169 178 172 
		f 3 40 -14 -40 
		mu 0 3 172 168 169 
		f 3 41 42 -36 
		mu 0 3 178 184 173 
		f 3 43 -43 44 
		mu 0 3 182 173 184 
		f 3 -44 -33 45 
		mu 0 3 173 182 180 
		f 3 46 -31 -21 
		mu 0 3 148 162 154 
		f 3 47 -47 48 
		mu 0 3 214 162 148 
		f 3 49 50 -49 
		mu 0 3 148 215 214 
		f 3 -29 -48 51 
		mu 0 3 178 171 183 
		f 3 -42 -52 -51 
		mu 0 3 184 178 183 
		f 3 -34 -45 -50 
		mu 0 3 148 181 215 
		f 3 -30 -39 -28 
		mu 0 3 167 178 170 ;
	setAttr ".ndt" 0;
createNode transform -n "ignore_NGon01" -p "pmd0_head011";
	setAttr ".t" -type "double3" 0 50 0 ;
	setAttr ".r" -type "double3" 0 0 89.999996584905304 ;
	setAttr ".s" -type "double3" 0.99999996577146 0.99999996577146 1 ;
createNode displayLayerManager -n "layerManager";
createNode displayLayer -n "defaultLayer";
createNode renderLayerManager -n "renderLayerManager";
createNode renderLayer -n "defaultRenderLayer";
createNode renderLayer -s -n "globalRender";
createNode phong -n "Explorer_Default";
	setAttr ".rfi" 1.5;
	setAttr ".dc" 1;
	setAttr ".c" -type "float3" 0.75294125 0.75294125 0.75294125 ;
	setAttr ".ambc" -type "float3" 0.11764707 0.11764707 0.11764707 ;
	setAttr ".sc" -type "float3" 0.75294125 0.75294125 0.75294125 ;
	setAttr ".rfl" 0;
	setAttr ".cp" 8;
createNode shadingEngine -n "Explorer_DefaultSG";
	setAttr ".ro" yes;
createNode materialInfo -n "materialInfo1";
createNode phong -n "pmd0_head010";
	setAttr ".rfi" 1.5;
	setAttr ".dc" 1;
	setAttr ".ambc" -type "float3" 1 1 1 ;
	setAttr ".sc" -type "float3" 0.89999998 0.89999998 0.89999998 ;
	setAttr ".rfl" 0;
	setAttr ".cp" 3.9999997615814209;
createNode shadingEngine -n "pmd0_head010SG";
	setAttr -s 4 ".dsm";
	setAttr ".ro" yes;
createNode materialInfo -n "materialInfo2";
createNode file -n "file1";
	setAttr ".ftn" -type "string" "D:/Games/NWN/hak/dla_critters/pmd0_head010.tga";
createNode place2dTexture -n "place2dTexture1";
createNode script -n "uiConfigurationScriptNode";
	setAttr ".b" -type "string" (
		"// Maya Mel UI Configuration File.\n"
		+ "// No UI generated in batch mode.\n");
	setAttr ".st" 3;
createNode script -n "sceneConfigurationScriptNode";
	setAttr ".b" -type "string" "playbackOptions -min 1 -max 24 -ast 1 -aet 48 ";
	setAttr ".st" 6;
select -ne :time1;
	setAttr ".o" 1;
select -ne :renderPartition;
	setAttr -s 4 ".st";
select -ne :renderGlobalsList1;
select -ne :defaultShaderList1;
	setAttr -s 4 ".s";
select -ne :postProcessList1;
	setAttr -s 2 ".p";
select -ne :defaultTextureList1;
select -ne :initialShadingGroup;
	setAttr ".ro" yes;
select -ne :initialParticleSE;
	setAttr ".ro" yes;
select -ne :defaultHardwareRenderGlobals;
	setAttr ".fn" -type "string" "im";
	setAttr ".res" -type "string" "ntsc_4d 646 485 1.333";
connectAttr "layerManager.dli[0]" "defaultLayer.id";
connectAttr "renderLayerManager.rlmi[0]" "defaultRenderLayer.rlid";
connectAttr "Explorer_Default.oc" "Explorer_DefaultSG.ss";
connectAttr "Explorer_DefaultSG.msg" "materialInfo1.sg";
connectAttr "file1.oc" "pmd0_head010.c";
connectAttr "pmd0_head010.oc" "pmd0_head010SG.ss";
connectAttr "polySurfaceShape1.iog" "pmd0_head010SG.dsm" -na;
connectAttr "polySurfaceShape2.iog" "pmd0_head010SG.dsm" -na;
connectAttr "polySurfaceShape3.iog" "pmd0_head010SG.dsm" -na;
connectAttr "polySurfaceShape4.iog" "pmd0_head010SG.dsm" -na;
connectAttr "pmd0_head010SG.msg" "materialInfo2.sg";
connectAttr "place2dTexture1.c" "file1.c";
connectAttr "place2dTexture1.tf" "file1.tf";
connectAttr "place2dTexture1.rf" "file1.rf";
connectAttr "place2dTexture1.s" "file1.s";
connectAttr "place2dTexture1.wu" "file1.wu";
connectAttr "place2dTexture1.wv" "file1.wv";
connectAttr "place2dTexture1.re" "file1.re";
connectAttr "place2dTexture1.of" "file1.of";
connectAttr "place2dTexture1.r" "file1.ro";
connectAttr "place2dTexture1.n" "file1.n";
connectAttr "place2dTexture1.o" "file1.uv";
connectAttr "place2dTexture1.ofs" "file1.fs";
connectAttr "Explorer_DefaultSG.pa" ":renderPartition.st" -na;
connectAttr "pmd0_head010SG.pa" ":renderPartition.st" -na;
connectAttr "Explorer_Default.msg" ":defaultShaderList1.s" -na;
connectAttr "pmd0_head010.msg" ":defaultShaderList1.s" -na;
connectAttr "file1.msg" ":defaultTextureList1.tx" -na;
// End of flint.ma
